<?xml version="1.0" encoding="UTF-8"?>
<svg width="1896px" height="72px" viewBox="0 0 1896 72" version="1.1" xmlns="http://www.w3.org/2000/svg" xmlns:xlink="http://www.w3.org/1999/xlink">
    <!-- Generator: Sketch 53.2 (72643) - https://sketchapp.com -->
    <title>bg_3rd_titlebar</title>
    <desc>Created with Sketch.</desc>
    <defs>
        <rect id="path-1" x="104" y="869" width="1888" height="64" rx="4"></rect>
        <filter x="-0.4%" y="-7.8%" width="100.7%" height="121.9%" filterUnits="objectBoundingBox" id="filter-2">
            <feOffset dx="0" dy="2" in="SourceAlpha" result="shadowOffsetOuter1"></feOffset>
            <feGaussianBlur stdDeviation="2" in="shadowOffsetOuter1" result="shadowBlurOuter1"></feGaussianBlur>
            <feColorMatrix values="0 0 0 0 0   0 0 0 0 0   0 0 0 0 0  0 0 0 0.5 0" type="matrix" in="shadowBlurOuter1"></feColorMatrix>
        </filter>
    </defs>
    <g id="spec" stroke="none" stroke-width="1" fill="none" fill-rule="evenodd">
        <g id="Artboard" transform="translate(-100.000000, -867.000000)" fill-rule="nonzero">
            <g id="bg_3rd_titlebar">
                <use fill="black" fill-opacity="1" filter="url(#filter-2)" xlink:href="#path-1"></use>
                <use fill="#2B2D32" xlink:href="#path-1"></use>
            </g>
        </g>
    </g>
</svg>