<?xml version="1.0" encoding="utf-8"?>
<!-- Generator: Adobe Illustrator 15.0.2, SVG Export Plug-In . SVG Version: 6.00 Build 0)  -->
<!DOCTYPE svg PUBLIC "-//W3C//DTD SVG 1.1//EN" "http://www.w3.org/Graphics/SVG/1.1/DTD/svg11.dtd">
<svg version="1.1" id="Layer_1" xmlns="http://www.w3.org/2000/svg" xmlns:xlink="http://www.w3.org/1999/xlink" x="0px" y="0px"
	 width="87.633px" height="11.883px" viewBox="0 0 87.633 11.883" enable-background="new 0 0 87.633 11.883" xml:space="preserve">
<g>
	<path fill="#FFFFFF" d="M1.758,10.899L0.949,9.317c0.992-0.336,1.785-1,2.379-1.992C3.773,6.583,3.996,5.93,3.996,5.368l0.012-2.66
		H1.043V0.833H6.27v3.445c0,0.828-0.137,1.648-0.41,2.461C5.539,7.684,5.066,8.5,4.441,9.188C3.707,9.993,2.812,10.563,1.758,10.899
		z M7.09,0.645h2.309v3.199h0.727v1.875H9.398v5.602H7.09V0.645z"/>
	<path fill="#FFFFFF" d="M14.344,3.293h2.18V4.77h3.938v1.711h-8.168V4.77h2.051V3.293z M16.371,6.762
		c1.031,0,1.941,0.203,2.73,0.609c0.875,0.453,1.312,1.027,1.312,1.723c0,0.75-0.453,1.328-1.359,1.734
		c-0.75,0.336-1.648,0.504-2.695,0.504s-1.941-0.18-2.684-0.539c-0.883-0.43-1.324-1.023-1.324-1.781
		c0-0.711,0.445-1.277,1.336-1.699C14.461,6.946,15.355,6.762,16.371,6.762z M12.562,0.622h7.57v1.113
		c0,0.93-0.014,1.551-0.041,1.863s-0.08,0.598-0.158,0.855H17.73c0.047-0.141,0.078-0.34,0.094-0.598s0.023-0.516,0.023-0.773V2.391
		h-5.285V0.622z M14.824,9.036c0,0.336,0.164,0.59,0.492,0.762c0.273,0.141,0.621,0.211,1.043,0.211
		c0.398,0,0.734-0.059,1.008-0.176c0.359-0.156,0.539-0.383,0.539-0.68c0-0.312-0.146-0.555-0.439-0.727s-0.654-0.258-1.084-0.258
		c-0.414,0-0.758,0.059-1.031,0.176C15,8.493,14.824,8.723,14.824,9.036z"/>
	<path fill="#FFFFFF" d="M28.805,6.903l-0.492-1.629c0.672,0,1.305-0.227,1.898-0.68c0.633-0.484,1.031-1.102,1.195-1.852h-2.859
		v-1.84h5.355v0.398c0,1.523-0.352,2.73-1.055,3.621C32.02,5.977,30.672,6.637,28.805,6.903z M29.309,7.454h2.297v2.062h5.59v1.805
		H30.68c-0.586,0-0.977-0.129-1.172-0.387c-0.133-0.172-0.199-0.477-0.199-0.914V7.454z M34.688,0.622h2.285V8.11h-2.285V0.622z"/>
	<path fill="#FFFFFF" d="M48.34,4.395v1.84h-8.742v-1.84H48.34z M41.203,11.321c-0.5,0-0.84-0.113-1.02-0.34s-0.27-0.605-0.27-1.137
		V6.704h2.438V7.29h3.059V6.704h2.449v4.617H41.203z M39.984,0.622h7.793c0,1.039-0.018,1.787-0.053,2.244s-0.092,0.838-0.17,1.143
		h-2.297c0.016-0.07,0.035-0.229,0.059-0.475s0.043-0.439,0.059-0.58l-0.012-0.469h-5.379V0.622z M42.352,9.059v0.516h3.059V9.059
		H42.352z"/>
	<path fill="#FFFFFF" d="M58.242,11.321h-5.859c-0.461,0-0.801-0.113-1.02-0.34c-0.18-0.188-0.27-0.449-0.27-0.785V7.208h2.555
		V6.856h-3.223V5.192h8.625v1.664h-3.059v0.352h2.25V11.321z M50.859,4.887V3.223h0.68V2.309h-0.68V0.645h7.746v1.664h-0.773v0.914
		h0.773v1.664H50.859z M53.25,9.657h2.836V8.86H53.25V9.657z M53.789,3.223h1.793V2.309h-1.793V3.223z"/>
	<path fill="#FFFFFF" d="M73.219,0.622h2.098v8.051h-2.098V7.805H72.34v-1.02c-0.375,0.375-0.746,0.639-1.113,0.791
		s-0.789,0.229-1.266,0.229c-0.859,0-1.564-0.244-2.115-0.732S67.02,5.977,67.02,5.25c0-0.625,0.207-1.152,0.621-1.582
		c0.094-0.094,0.355-0.289,0.785-0.586h-1.254V1.301h1.77v-0.68h2.32v0.68h1.441v1.781H71.52c0.211,0.078,0.391,0.184,0.539,0.316
		c0.125,0.109,0.234,0.246,0.328,0.41v-0.41h0.832V0.622z M67.723,8.04h2.062v1.477h5.695v1.805h-6.504
		c-0.492,0-0.816-0.059-0.973-0.176c-0.188-0.141-0.281-0.438-0.281-0.891V8.04z M68.977,5.204c0,0.289,0.094,0.543,0.281,0.762
		s0.418,0.328,0.691,0.328s0.502-0.107,0.686-0.322S70.91,5.5,70.91,5.204s-0.088-0.559-0.264-0.785s-0.404-0.34-0.686-0.34
		c-0.289,0-0.525,0.113-0.709,0.34S68.977,4.907,68.977,5.204z M72.926,4.993v0.246c0,0.211-0.021,0.402-0.064,0.574
		s-0.107,0.328-0.193,0.469h0.551V4.993H72.926z"/>
	<path fill="#FFFFFF" d="M79.723,5.321V5.145c-0.625-0.164-1.062-0.367-1.312-0.609c-0.203-0.203-0.305-0.453-0.305-0.75
		c0-0.219,0.102-0.422,0.305-0.609c0.016-0.016,0.168-0.125,0.457-0.328h-1.078V1.219h1.852V0.645h2.191v0.574h1.805v1.629h-0.82
		c0.242,0.141,0.395,0.242,0.457,0.305c0.164,0.164,0.246,0.383,0.246,0.656c0,0.359-0.164,0.66-0.492,0.902
		c-0.281,0.203-0.648,0.348-1.102,0.434v0.176h1.84v1.652h-6.152V5.321H79.723z M85.992,9.305c0,0.719-0.457,1.258-1.371,1.617
		c-0.688,0.273-1.449,0.41-2.285,0.41c-0.977,0-1.824-0.18-2.543-0.539c-0.828-0.414-1.242-0.977-1.242-1.688
		c0-0.609,0.402-1.109,1.207-1.5c0.711-0.344,1.531-0.516,2.461-0.516c0.961,0,1.809,0.188,2.543,0.562
		C85.582,8.075,85.992,8.625,85.992,9.305z M80.098,3.774c0,0.109,0.064,0.184,0.193,0.223s0.291,0.059,0.486,0.059
		c0.203,0,0.371-0.016,0.504-0.047s0.199-0.098,0.199-0.199s-0.066-0.178-0.199-0.229s-0.293-0.076-0.48-0.076
		c-0.211,0-0.381,0.016-0.51,0.047S80.098,3.657,80.098,3.774z M80.73,9.247c0,0.164,0.172,0.297,0.516,0.398
		s0.703,0.152,1.078,0.152s0.713-0.039,1.014-0.117s0.451-0.207,0.451-0.387c0-0.219-0.211-0.379-0.633-0.48
		c-0.266-0.062-0.566-0.094-0.902-0.094c-0.391,0-0.742,0.043-1.055,0.129S80.73,9.067,80.73,9.247z M84,0.645h2.098v2.18h0.926
		V4.36h-0.926v2.918H84V0.645z"/>
</g>
</svg>
